[gd_scene load_steps=4 format=2]

[ext_resource path="res://models/Bob/OBJ/Bob.obj" type="ArrayMesh" id=1]
[ext_resource path="res://skys/AllSky_Space_AnotherPlanet Equirect.png" type="ProceduralSky" id=2]

[sub_resource type="Environment" id=1]
background_mode = 2
background_sky = ExtResource( 2 )

[node name="Spatial" type="Spatial"]

[node name="WorldEnvironment" type="WorldEnvironment" parent="."]
environment = SubResource( 1 )

[node name="Camera" type="Camera" parent="."]
transform = Transform( 1, 0, 0, 0, 0.976751, 0.214377, 0, -0.214377, 0.976751, 0, 5.37182, -0.939569 )
fov = 91.2321

[node name="Bob" type="MeshInstance" parent="Camera"]
transform = Transform( -1, 0, -8.74228e-08, -6.72738e-08, 0.63862, 0.769522, 5.58299e-08, 0.769522, -0.63862, -0.56738, -0.102166, -8.25266 )
mesh = ExtResource( 1 )
material/0 = null
